{
    "key": "group_5cc9cd6557352",
    "title": "Block: Fifty\/Fifty",
    "fields": [
        {
            "key": "field_5d694a1bdcd07",
            "label": "",
            "name": "",
            "type": "message",
            "instructions": "",
            "required": 0,
            "conditional_logic": 0,
            "wrapper": {
                "width": "",
                "class": "",
                "id": ""
            },
            "message": "<h2>Fifty\/Fifty Block<\/h2>",
            "new_lines": "wpautop",
            "esc_html": 0
        },
        {
            "key": "field_5cc9cd655d984",
            "label": "Block Content",
            "name": "",
            "type": "tab",
            "instructions": "",
            "required": 0,
            "conditional_logic": 0,
            "wrapper": {
                "width": "",
                "class": "",
                "id": ""
            },
            "placement": "left",
            "endpoint": 0
        },
        {
            "key": "field_5cc9cd655d995",
            "label": "Block layout:",
            "name": "block_layout",
            "type": "select",
            "instructions": "Choose which block layout you'd like to use.",
            "required": 1,
            "conditional_logic": 0,
            "wrapper": {
                "width": "100",
                "class": "",
                "id": ""
            },
            "choices": {
                "media_text": "Media\/Text",
                "text_media": "Text\/Media",
                "text_text": "Text\/Text"
            },
            "default_value": "media_text",
            "allow_null": 0,
            "multiple": 0,
            "ui": 0,
            "ajax": 0,
            "return_format": "value",
            "placeholder": ""
        },
        {
            "key": "field_5cc9cd655d9a4",
            "label": "Left Side Image",
            "name": "media_left",
            "type": "image",
            "instructions": "Add or Upload an image. (640x480px .jpg, .png)",
            "required": 0,
            "conditional_logic": [
                [
                    {
                        "field": "field_5cc9cd655d995",
                        "operator": "==",
                        "value": "media_text"
                    }
                ]
            ],
            "wrapper": {
                "width": "50",
                "class": "",
                "id": ""
            },
            "return_format": "array",
            "preview_size": "medium",
            "library": "all",
            "min_width": "",
            "min_height": "",
            "min_size": "",
            "max_width": "",
            "max_height": "",
            "max_size": "",
            "mime_types": "jpg, jpeg, png, gif"
        },
        {
            "key": "field_5cc9cd655d9b2",
            "label": "Text (Primary)",
            "name": "text_primary",
            "type": "wysiwyg",
            "instructions": "",
            "required": 0,
            "conditional_logic": [
                [
                    {
                        "field": "field_5cc9cd655d995",
                        "operator": "==",
                        "value": "media_text"
                    }
                ],
                [
                    {
                        "field": "field_5cc9cd655d995",
                        "operator": "==",
                        "value": "text_media"
                    }
                ],
                [
                    {
                        "field": "field_5cc9cd655d995",
                        "operator": "==",
                        "value": "text_text"
                    }
                ]
            ],
            "wrapper": {
                "width": "50",
                "class": "",
                "id": ""
            },
            "default_value": "Primary Text content",
            "tabs": "all",
            "toolbar": "full",
            "media_upload": 1,
            "delay": 0
        },
        {
            "key": "field_5cc9cd655d9c1",
            "label": "Text (Secondary)",
            "name": "text_secondary",
            "type": "wysiwyg",
            "instructions": "Secondary Text content",
            "required": 0,
            "conditional_logic": [
                [
                    {
                        "field": "field_5cc9cd655d995",
                        "operator": "==",
                        "value": "text_text"
                    }
                ]
            ],
            "wrapper": {
                "width": "50",
                "class": "",
                "id": ""
            },
            "default_value": "",
            "tabs": "all",
            "toolbar": "full",
            "media_upload": 1,
            "delay": 0
        },
        {
            "key": "field_5cc9cd655d9d0",
            "label": "Right Side Image",
            "name": "media_right",
            "type": "image",
            "instructions": "Add or Upload an image. (640x480px .jpg, .png)",
            "required": 0,
            "conditional_logic": [
                [
                    {
                        "field": "field_5cc9cd655d995",
                        "operator": "==",
                        "value": "text_media"
                    }
                ]
            ],
            "wrapper": {
                "width": "50",
                "class": "",
                "id": ""
            },
            "return_format": "array",
            "preview_size": "medium",
            "library": "all",
            "min_width": "",
            "min_height": "",
            "min_size": "",
            "max_width": "",
            "max_height": "",
            "max_size": "",
            "mime_types": "jpg, jpeg, png, gif"
        },
        {
            "key": "field_5cc9cd7d085de",
            "label": "Background Options",
            "name": "background_options",
            "type": "clone",
            "instructions": "",
            "required": 0,
            "conditional_logic": 0,
            "wrapper": {
                "width": "",
                "class": "",
                "id": ""
            },
            "clone": [
                "group_58ebcc07bfbd7"
            ],
            "display": "seamless",
            "layout": "block",
            "prefix_label": 0,
            "prefix_name": 0
        },
        {
            "key": "field_5cc9cd8c085df",
            "label": "Display Options",
            "name": "display_options",
            "type": "clone",
            "instructions": "",
            "required": 0,
            "conditional_logic": 0,
            "wrapper": {
                "width": "",
                "class": "",
                "id": ""
            },
            "clone": [
                "group_5c1418a5dcaec"
            ],
            "display": "seamless",
            "layout": "block",
            "prefix_label": 0,
            "prefix_name": 0
        },
        {
            "key": "field_5cc9cd98085e0",
            "label": "Other Options",
            "name": "other_options",
            "type": "clone",
            "instructions": "",
            "required": 0,
            "conditional_logic": 0,
            "wrapper": {
                "width": "",
                "class": "",
                "id": ""
            },
            "clone": [
                "group_594168e970d85"
            ],
            "display": "seamless",
            "layout": "block",
            "prefix_label": 0,
            "prefix_name": 0
        }
    ],
    "location": [
        [
            {
                "param": "block",
                "operator": "==",
                "value": "acf\/wds-fifty-fifty"
            }
        ]
    ],
    "menu_order": 0,
    "position": "normal",
    "style": "default",
    "label_placement": "top",
    "instruction_placement": "label",
    "hide_on_screen": "",
    "active": 1,
    "description": "",
    "modified": 1595138490
}